2/DSD_LAB_2/simulation/qsim/Exp2.msim.vcd
$comment
	File created using the following command:
		vcd file Exp2.msim.vcd -direction
$end
$date
	Wed Mar 16 00:46:05 2022
$end
$version
	ModelSim Version 2020.1
$end
$timescale
	1ps
$end

$scope module Exp2_vlg_vec_tst $end
$var reg 1 ! clear $end
$var reg 1 " clock $end
$var reg 1 # ent $end
$var reg 1 $ in $end
$var reg 1 % out $end
$var reg 1 & T $end
$var wire 1 ' Close $end
$var wire 1 ( Open $end
$var wire 1 ) Out0 $end
$var wire 1 * Out1 $end
$var wire 1 + Out2 $end
$var wire 1 , Out3 $end

$scope module i1 $end
$var wire 1 - gnd $end
$var wire 1 . vcc $end
$var wire 1 / unknown $end
$var tri1 1 0 devclrn $end
$var tri1 1 1 devpor $end
$var tri1 1 2 devoe $end
$var wire 1 3 Close~output_o $end
$var wire 1 4 Open~output_o $end
$var wire 1 5 Out0~output_o $end
$var wire 1 6 Out1~output_o $end
$var wire 1 7 Out2~output_o $end
$var wire 1 8 Out3~output_o $end
$var wire 1 9 clock~input_o $end
$var wire 1 : out~input_o $end
$var wire 1 ; T~input_o $end
$var wire 1 < in~input_o $end
$var wire 1 = ent~input_o $end
$var wire 1 > inst4~1_combout $end
$var wire 1 ? inst7~combout $end
$var wire 1 @ inst0|inst21~0_combout $end
$var wire 1 A clear~input_o $end
$var wire 1 B inst0|inst21~q $end
$var wire 1 C inst4~combout $end
$var wire 1 D inst0|inst23~0_combout $end
$var wire 1 E inst0|inst23~q $end
$var wire 1 F inst0|inst2~combout $end
$var wire 1 G inst0|inst19~0_combout $end
$var wire 1 H inst0|inst19~q $end
$var wire 1 I inst0|inst22~0_combout $end
$var wire 1 J inst0|inst22~q $end
$var wire 1 K inst0|inst3~combout $end
$var wire 1 L inst4~0_combout $end
$upscope $end
$upscope $end
$enddefinitions $end
#0
$dumpvars
0!
0"
0#
0$
0%
1&
1'
0(
0)
0*
0+
0,
0-
1.
x/
10
11
12
13
04
05
06
07
08
09
0:
1;
0<
0=
0>
0?
0@
0A
0B
0C
0D
0E
0F
0G
0H
0I
0J
0K
0L
$end
#5000
1"
19
#10000
0"
09
#15000
1"
19
#20000
0"
09
#25000
1"
19
#30000
1!
1#
0"
1A
1=
09
#35000
1"
19
#40000
1$
0"
1<
09
1C
1>
1L
14
1(
1G
#45000
1"
19
1H
15
1K
1)
0G
1@
03
0'
#50000
0"
09
#55000
1"
19
0H
1B
16
05
0)
1*
1G
#60000
0"
09
#65000
1"
19
1H
15
1)
1I
0G
0@
#70000
0"
09
#75000
1"
19
1J
0H
0B
06
05
17
1+
0)
0*
1G
#80000
0"
09
#85000
1"
19
1H
15
1)
0G
1@
#90000
0"
09
#95000
1"
19
0H
1B
16
05
0)
1*
1G
#100000
0"
09
#105000
1"
19
1H
15
1)
0I
0G
1D
0@
#110000
0"
09
#115000
1"
19
0J
0H
1E
0B
06
18
05
07
0+
0)
1,
0*
1G
#120000
0"
09
#125000
1"
19
1H
15
1)
0G
1@
#130000
0"
09
#135000
1"
19
0H
1B
16
05
0)
1*
1G
#140000
0"
09
#145000
1"
19
1H
15
1)
1I
0G
0@
#150000
0"
09
#155000
1"
19
1J
0H
0B
06
05
17
1+
0)
0*
1G
#160000
0"
09
#165000
1"
19
1H
15
1)
0G
1@
#170000
0"
09
#175000
1"
19
0H
1B
16
05
0)
1*
1G
#180000
0"
09
#185000
1"
19
1H
15
1F
1)
0I
0G
0D
0@
0C
0L
1G
1@
04
0(
1I
1D
#190000
0"
09
#195000
1"
19
#200000
0"
09
#205000
1"
19
#210000
0"
09
#215000
1"
19
#220000
0"
09
#225000
1"
19
#230000
0"
09
#235000
1"
19
#240000
0"
09
#245000
1"
19
#250000
0"
09
#255000
1"
19
#260000
0"
09
#265000
1"
19
#270000
0"
09
#275000
1"
19
#280000
0"
09
#285000
1"
19
#290000
0"
09
#295000
1"
19
#300000
0"
09
#305000
1"
19
#310000
0"
09
#315000
1"
19
#320000
0"
09
#325000
1"
19
#330000
0"
09
#335000
1"
19
#340000
0#
0$
0"
0=
0<
09
0>
#345000
1"
19
#350000
0"
09
#355000
1"
19
#360000
1%
0"
1:
09
1?
0G
#365000
1"
19
0H
05
0F
0)
1G
0@
#370000
0"
09
#375000
1"
19
1H
0B
06
15
1)
0*
0G
#380000
0"
09
#385000
1"
19
0H
05
0)
0I
1G
1@
#390000
0"
09
#395000
1"
19
0J
1H
1B
16
15
07
0+
1)
1*
0G
#400000
0"
09
#405000
1"
19
0H
05
0)
1G
0@
#410000
0"
09
#415000
1"
19
1H
0B
06
15
1)
0*
0G
#420000
0"
09
#425000
1"
19
0H
05
0)
1I
1G
0D
1@
#430000
0"
09
#435000
1"
19
1J
1H
0E
1B
16
08
15
17
1+
1)
0,
1*
0G
#440000
0"
09
#445000
1"
19
0H
05
0)
1G
0@
#450000
0%
0"
0:
09
0?
0G
1@
#455000
1"
19
#460000
0"
09
#465000
1"
19
#470000
0"
09
#475000
1"
19
#480000
0"
09
#485000
1"
19
#490000
0"
09
#495000
1"
19
#500000
0"
09
#505000
1"
19
#510000
0"
09
#515000
1"
19
#520000
0"
09
#525000
1"
19
#530000
1#
1$
1%
0"
1=
1<
1:
09
1>
1L
14
1(
#535000
1"
19
#540000
0"
09
#545000
1"
19
#550000
0"
09
#555000
1"
19
#560000
0"
09
#565000
1"
19
#570000
0"
09
#575000
1"
19
#580000
0"
09
#585000
1"
19
#590000
0"
09
#595000
1"
19
#600000
0"
09
#605000
1"
19
#610000
0"
09
#615000
1"
19
#620000
0"
09
#625000
1"
19
#630000
0"
09
#635000
1"
19
#640000
0"
09
#645000
1"
19
#650000
0#
0$
0%
0"
0=
0<
0:
09
0>
1G
0L
04
0(
0G
#655000
1"
19
#660000
0"
09
#665000
1"
19
#670000
0"
09
#675000
1"
19
#680000
0"
09
#685000
1"
19
#690000
0"
09
#695000
1"
19
#700000
0"
09
#705000
1"
19
#710000
0"
09
#715000
1"
19
#720000
0"
09
#725000
1"
19
#730000
0"
09
#735000
1"
19
#740000
0"
09
#745000
1"
19
#750000
0"
09
#755000
1"
19
#760000
0"
09
#765000
1"
19
#770000
0"
09
#775000
1"
19
#780000
0"
09
#785000
1"
19
#790000
0"
09
#795000
1"
19
#800000
0"
09
#805000
1"
19
#810000
0"
09
#815000
1"
19
#820000
0"
09
#825000
1"
19
#830000
0"
09
#835000
1"
19
#840000
0"
09
#845000
1"
19
#850000
0"
09
#855000
1"
19
#860000
0"
09
#865000
1"
19
#870000
0"
09
#875000
1"
19
#880000
0"
09
#885000
1"
19
#890000
0"
09
#895000
1"
19
#900000
0"
09
#905000
1"
19
#910000
0"
09
#915000
1"
19
#920000
0"
09
#925000
1"
19
#930000
0"
09
#935000
1"
19
#940000
0"
09
#945000
1"
19
#950000
0"
09
#955000
1"
19
#960000
0"
09
#965000
1"
19
#970000
0"
09
#975000
1"
19
#980000
0"
09
#985000
1"
19
#990000
0"
09
#995000
1"
19
