3/modelsim/transcript
vsim -gui work.sequential_comparator_test
# vsim -gui work.sequential_comparator_test 
# Start time: 19:58:29 on Mar 25,2022
# Loading work.sequential_comparator_test
# Loading work.sequential_comparator
add wave -position insertpoint sim:/sequential_comparator_test/*
run
# x=          0 y=          1 gt=0 lt=1
# x=          1 y=          3 gt=0 lt=1
# x=          3 y=          7 gt=0 lt=1
# x=          7 y=         14 gt=0 lt=1
# x=          1 y=          1 gt=0 lt=0
# x=          2 y=          3 gt=0 lt=1
# x=          5 y=          6 gt=0 lt=1
# x=         11 y=         12 gt=0 lt=1
# x=          1 y=          0 gt=1 lt=0
# x=          3 y=          1 gt=1 lt=0
# x=          6 y=          3 gt=1 lt=0
# x=         12 y=          6 gt=1 lt=0
# x=          0 y=          1 gt=0 lt=1
# x=          0 y=          3 gt=0 lt=1
# x=          1 y=          7 gt=0 lt=1
# x=          3 y=         14 gt=0 lt=1
# x=          0 y=          0 gt=0 lt=0
# x=          0 y=          1 gt=0 lt=1
# x=          0 y=          3 gt=0 lt=1
# x=          1 y=          7 gt=0 lt=1
# x=          1 y=          1 gt=0 lt=0
# x=          2 y=          2 gt=0 lt=0
# x=          5 y=          5 gt=0 lt=0
# x=         11 y=         10 gt=1 lt=0
# x=          0 y=          0 gt=0 lt=0
# x=          0 y=          0 gt=0 lt=0
# x=          1 y=          0 gt=1 lt=0
# x=          2 y=          1 gt=1 lt=0
# x=          1 y=          0 gt=1 lt=0
# x=          2 y=          0 gt=1 lt=0
# x=          4 y=          0 gt=1 lt=0
# x=          9 y=          1 gt=1 lt=0
# x=          1 y=          1 gt=0 lt=0
# x=          3 y=          2 gt=1 lt=0
# x=          6 y=          5 gt=1 lt=0
# x=         13 y=         11 gt=1 lt=0
# x=          0 y=          0 gt=0 lt=0
# x=          1 y=          1 gt=0 lt=0
# x=          2 y=          3 gt=0 lt=1
# x=          5 y=          6 gt=0 lt=1
# ** Note: $stop    : D:/University/Az DSD/Experiments/3/modelsim/sequential_comparator_test.v(51)
#    Time: 740 ps  Iteration: 0  Instance: /sequential_comparator_test
# Break in Module sequential_comparator_test at D:/University/Az DSD/Experiments/3/modelsim/sequential_comparator_test.v line 51
# End time: 20:07:07 on Mar 25,2022, Elapsed time: 0:08:38
# Errors: 0, Warnings: 1
